%YAML 1.1
%TAG !u! tag:unity3d.com,2011:
--- !u!21 &2100000
Material:
  serializedVersion: 8
  m_ObjectHideFlags: 0
  m_CorrespondingSourceObject: {fileID: 0}
  m_PrefabInstance: {fileID: 0}
  m_PrefabAsset: {fileID: 0}
  m_Name: Mat_AguaSpray
  m_Shader: {fileID: -6465566751694194690, guid: 0287f6e356f3c9f46922a08cbc2be2ab,
    type: 3}
  m_ValidKeywords:
  - _ALPHATEST_ON
  - _SURFACE_TYPE_TRANSPARENT
  m_InvalidKeywords: []
  m_LightmapFlags: 4
  m_EnableInstancingVariants: 0
  m_DoubleSidedGI: 0
  m_CustomRenderQueue: 3000
  stringTagMap:
    RenderType: Transparent
  disabledShaderPasses:
  - DepthOnly
  m_SavedProperties:
    serializedVersion: 3
    m_TexEnvs:
    - unity_Lightmaps:
        m_Texture: {fileID: 0}
        m_Scale: {x: 1, y: 1}
        m_Offset: {x: 0, y: 0}
    - unity_LightmapsInd:
        m_Texture: {fileID: 0}
        m_Scale: {x: 1, y: 1}
        m_Offset: {x: 0, y: 0}
    - unity_ShadowMasks:
        m_Texture: {fileID: 0}
        m_Scale: {x: 1, y: 1}
        m_Offset: {x: 0, y: 0}
    m_Ints: []
    m_Floats:
    - _AlphaClip: 1
    - _Blend: 0
    - _CastShadows: 1
    - _Cull: 0
    - _DstBlend: 10
    - _Fill: 0.766
    - _QueueControl: 0
    - _QueueOffset: 0
    - _SrcBlend: 5
    - _Surface: 1
    - _WobbleX: 0
    - _WobbleZ: 0
    - _ZTest: 4
    - _ZWrite: 0
    - _ZWriteControl: 0
    m_Colors:
    - _Color: {r: 0.03444286, g: 0.053176895, b: 0.16981131, a: 1}
    - _TopColor: {r: 0.041295845, g: 0.07195357, b: 0.3018868, a: 1}
  m_BuildTextureStacks: []
--- !u!114 &6632094189794140794
MonoBehaviour:
  m_ObjectHideFlags: 11
  m_CorrespondingSourceObject: {fileID: 0}
  m_PrefabInstance: {fileID: 0}
  m_PrefabAsset: {fileID: 0}
  m_GameObject: {fileID: 0}
  m_Enabled: 1
  m_EditorHideFlags: 0
  m_Script: {fileID: 11500000, guid: d0353a89b1f911e48b9e16bdc9f2e058, type: 3}
  m_Name: 
  m_EditorClassIdentifier: 
  version: 5
