%YAML 1.1
%TAG !u! tag:unity3d.com,2011:
--- !u!1001 &3879830117604372514
PrefabInstance:
  m_ObjectHideFlags: 0
  serializedVersion: 2
  m_Modification:
    m_TransformParent: {fileID: 331192436880445570}
    m_Modifications:
    - target: {fileID: 707063067038014656, guid: 2593e549f5edaaf4eb226b664552b0c1,
        type: 3}
      propertyPath: plantGameobject
      value: 
      objectReference: {fileID: 1140379825806920248}
    - target: {fileID: 707063067290391707, guid: 2593e549f5edaaf4eb226b664552b0c1,
        type: 3}
      propertyPath: plantGameobject
      value: 
      objectReference: {fileID: 1140379825806920248}
    - target: {fileID: 707063068687805679, guid: 2593e549f5edaaf4eb226b664552b0c1,
        type: 3}
      propertyPath: plantGameobject
      value: 
      objectReference: {fileID: 1140379825806920248}
    - target: {fileID: 707063068900126584, guid: 2593e549f5edaaf4eb226b664552b0c1,
        type: 3}
      propertyPath: plantGameobject
      value: 
      objectReference: {fileID: 1140379825806920248}
    - target: {fileID: 707063068998498675, guid: 2593e549f5edaaf4eb226b664552b0c1,
        type: 3}
      propertyPath: lookAtObject
      value: 
      objectReference: {fileID: 0}
    - target: {fileID: 707063069099320355, guid: 2593e549f5edaaf4eb226b664552b0c1,
        type: 3}
      propertyPath: m_Name
      value: InfoCanvasPlant
      objectReference: {fileID: 0}
    - target: {fileID: 707063069099320356, guid: 2593e549f5edaaf4eb226b664552b0c1,
        type: 3}
      propertyPath: m_RootOrder
      value: 8
      objectReference: {fileID: 0}
    - target: {fileID: 707063069099320356, guid: 2593e549f5edaaf4eb226b664552b0c1,
        type: 3}
      propertyPath: m_LocalPosition.x
      value: 0
      objectReference: {fileID: 0}
    - target: {fileID: 707063069099320356, guid: 2593e549f5edaaf4eb226b664552b0c1,
        type: 3}
      propertyPath: m_LocalPosition.y
      value: 0
      objectReference: {fileID: 0}
    - target: {fileID: 707063069099320356, guid: 2593e549f5edaaf4eb226b664552b0c1,
        type: 3}
      propertyPath: m_LocalPosition.z
      value: 0
      objectReference: {fileID: 0}
    - target: {fileID: 707063069099320356, guid: 2593e549f5edaaf4eb226b664552b0c1,
        type: 3}
      propertyPath: m_LocalRotation.w
      value: 1
      objectReference: {fileID: 0}
    - target: {fileID: 707063069099320356, guid: 2593e549f5edaaf4eb226b664552b0c1,
        type: 3}
      propertyPath: m_LocalRotation.x
      value: 0
      objectReference: {fileID: 0}
    - target: {fileID: 707063069099320356, guid: 2593e549f5edaaf4eb226b664552b0c1,
        type: 3}
      propertyPath: m_LocalRotation.y
      value: 0
      objectReference: {fileID: 0}
    - target: {fileID: 707063069099320356, guid: 2593e549f5edaaf4eb226b664552b0c1,
        type: 3}
      propertyPath: m_LocalRotation.z
      value: 0
      objectReference: {fileID: 0}
    - target: {fileID: 707063069099320356, guid: 2593e549f5edaaf4eb226b664552b0c1,
        type: 3}
      propertyPath: m_LocalEulerAnglesHint.x
      value: 0
      objectReference: {fileID: 0}
    - target: {fileID: 707063069099320356, guid: 2593e549f5edaaf4eb226b664552b0c1,
        type: 3}
      propertyPath: m_LocalEulerAnglesHint.y
      value: 0
      objectReference: {fileID: 0}
    - target: {fileID: 707063069099320356, guid: 2593e549f5edaaf4eb226b664552b0c1,
        type: 3}
      propertyPath: m_LocalEulerAnglesHint.z
      value: 0
      objectReference: {fileID: 0}
    - target: {fileID: 7195646721653390219, guid: 2593e549f5edaaf4eb226b664552b0c1,
        type: 3}
      propertyPath: plantGameobject
      value: 
      objectReference: {fileID: 1140379825806920248}
    m_RemovedComponents: []
  m_SourcePrefab: {fileID: 100100000, guid: 2593e549f5edaaf4eb226b664552b0c1, type: 3}
--- !u!1001 &4858943881690466767
PrefabInstance:
  m_ObjectHideFlags: 0
  serializedVersion: 2
  m_Modification:
    m_TransformParent: {fileID: 0}
    m_Modifications:
    - target: {fileID: 5185559015139694925, guid: 6e021c966eac93b4f8be081b67cf9e82,
        type: 3}
      propertyPath: m_RootOrder
      value: 0
      objectReference: {fileID: 0}
    - target: {fileID: 5185559015139694925, guid: 6e021c966eac93b4f8be081b67cf9e82,
        type: 3}
      propertyPath: m_LocalPosition.x
      value: 8.564512
      objectReference: {fileID: 0}
    - target: {fileID: 5185559015139694925, guid: 6e021c966eac93b4f8be081b67cf9e82,
        type: 3}
      propertyPath: m_LocalPosition.y
      value: -0.00000047683716
      objectReference: {fileID: 0}
    - target: {fileID: 5185559015139694925, guid: 6e021c966eac93b4f8be081b67cf9e82,
        type: 3}
      propertyPath: m_LocalPosition.z
      value: 8.418939
      objectReference: {fileID: 0}
    - target: {fileID: 5185559015139694925, guid: 6e021c966eac93b4f8be081b67cf9e82,
        type: 3}
      propertyPath: m_LocalRotation.w
      value: 1
      objectReference: {fileID: 0}
    - target: {fileID: 5185559015139694925, guid: 6e021c966eac93b4f8be081b67cf9e82,
        type: 3}
      propertyPath: m_LocalRotation.x
      value: 0
      objectReference: {fileID: 0}
    - target: {fileID: 5185559015139694925, guid: 6e021c966eac93b4f8be081b67cf9e82,
        type: 3}
      propertyPath: m_LocalRotation.y
      value: -0
      objectReference: {fileID: 0}
    - target: {fileID: 5185559015139694925, guid: 6e021c966eac93b4f8be081b67cf9e82,
        type: 3}
      propertyPath: m_LocalRotation.z
      value: -0
      objectReference: {fileID: 0}
    - target: {fileID: 5185559015139694925, guid: 6e021c966eac93b4f8be081b67cf9e82,
        type: 3}
      propertyPath: m_LocalEulerAnglesHint.x
      value: 0
      objectReference: {fileID: 0}
    - target: {fileID: 5185559015139694925, guid: 6e021c966eac93b4f8be081b67cf9e82,
        type: 3}
      propertyPath: m_LocalEulerAnglesHint.y
      value: 0
      objectReference: {fileID: 0}
    - target: {fileID: 5185559015139694925, guid: 6e021c966eac93b4f8be081b67cf9e82,
        type: 3}
      propertyPath: m_LocalEulerAnglesHint.z
      value: 0
      objectReference: {fileID: 0}
    - target: {fileID: 5529609863451739127, guid: 6e021c966eac93b4f8be081b67cf9e82,
        type: 3}
      propertyPath: m_Name
      value: Peyote
      objectReference: {fileID: 0}
    m_RemovedComponents: []
  m_SourcePrefab: {fileID: 100100000, guid: 6e021c966eac93b4f8be081b67cf9e82, type: 3}
--- !u!4 &331192436880445570 stripped
Transform:
  m_CorrespondingSourceObject: {fileID: 5185559015139694925, guid: 6e021c966eac93b4f8be081b67cf9e82,
    type: 3}
  m_PrefabInstance: {fileID: 4858943881690466767}
  m_PrefabAsset: {fileID: 0}
--- !u!1 &1140379825806920248 stripped
GameObject:
  m_CorrespondingSourceObject: {fileID: 5529609863451739127, guid: 6e021c966eac93b4f8be081b67cf9e82,
    type: 3}
  m_PrefabInstance: {fileID: 4858943881690466767}
  m_PrefabAsset: {fileID: 0}
